ModelReport
…
#calculate WAIC and MSE
mpar_comb <- par_comb %>% dplyr::group_by(model, cond) %>%
  dplyr::summarise( n=n(), mse_pse=sum((errpse)^2)/n,
                   mse_jnd=sum((errjnd)^2)/n, m_waic = mean(waic))

## `summarise()` regrouping output by 'model' (override with `.groups` argument)

mpar_comb

## # A tibble: 30 x 6
## # Groups:   model [5]
##    model           cond           n mse_pse mse_jnd m_waic
##    <fct>           <fct>      <int>   <dbl>   <dbl>  <dbl>
##  1 Bisection Model PS            14   3307.    824.   73.9
##  2 Bisection Model DF            13   9801.   2765.   60.3
##  3 Bisection Model U-shaped      15  12970.    460.   97.3
##  4 Bisection Model NS            14   3954.    182.   73.9
##  5 Bisection Model AF            13  11749.   1665.   60.3
##  6 Bisection Model I T-shaped    15    297.    681.   97.3
##  7 Spacing Model   PS            14   3965.    254.  120. 
##  8 Spacing Model   DF            13   9801.   2765.   60.3
##  9 Spacing Model   U-shaped      15  12970.    460.   97.3
## 10 Spacing Model   NS            14   4834.    306.  120. 
## #  with 20 more rows
…
