ModelReport
…
## `summarise()` regrouping output by 'model' (override with `.groups` argument)
## `summarise()` regrouping output by 'model' (override with `.groups` argument)

### show the mean in each model 
m_par <- modelresults %>% group_by(model, cond, NSub) %>%
  summarise(xmean= mean(xmean), xmeanhat= mean(xmeanhat))  %>%
  group_by(model, cond) %>%
  summarise(xmean= mean(xmean), xmeanhat= mean(xmeanhat)) 

## `summarise()` regrouping output by 'model', 'cond' (override with `.groups` argument)
## `summarise()` regrouping output by 'model' (override with `.groups` argument)

m_par

## # A tibble: 60 x 4
## # Groups:   model [10]
##    model              cond       xmean xmeanhat
##    <fct>              <fct>      <dbl>    <dbl>
##  1 Bisection Model    AF         1000     1000 
##  2 Bisection Model    DF         1000     1000 
##  3 Bisection Model    I T-shaped  925      925 
##  4 Bisection Model    NS         1000     1000 
##  5 Bisection Model    PS         1000     1000 
##  6 Bisection Model    U-shaped    925      925 
##  7 Bisection Model GM AF          800      800 
##  8 Bisection Model GM DF          800      800 
##  9 Bisection Model GM I T-shaped  762.     762.
## 10 Bisection Model GM NS          800      800 
## #  with 50 more rows
…
